D:\study\Java\teststand\src\test\java\loginTests\LoginTest.java
D:\study\Java\teststand\src\test\java\postsTests\NotMyPostsTest.java
D:\study\Java\teststand\src\test\java\loginTests\AbstractLoginTest.java
D:\study\Java\teststand\src\test\java\postsTests\AbstractPostsTest.java
D:\study\Java\teststand\src\test\java\postsTests\MyPostsTest.java
